{
  "name": "<name of the schedule>",
  "project_name": "<name of the project>",
  "description": "<brief description of the schedule>",
  "is_recurring": true,
  "schedule_date": "DD/MM",
  "schedule_time": "HH:MM",
  "recurring_frequency": "yearly",
  "recurring_day": "2,5",
  "recurring_date": "1,13,25",
  "recurring_month": "3,7",
  "action": {
    "type": "run_pipeline",
    "parameters": {
        "pipeline_name": "<your pipeline name>",
        "pipeline_version": "<version number of pipeline to be run>",
        "run_parameters": {
            "path": "/home/files",
            "branch": "develop"
      }
    }
  }
}